<?xml version="1.0" standalone="no"?>
<!DOCTYPE svg PUBLIC "-//W3C//DTD SVG 1.1//EN" "http://www.w3.org/Graphics/SVG/1.1/DTD/svg11.dtd" >
<svg xmlns="http://www.w3.org/2000/svg">
<metadata>Generated by IcoMoon</metadata>
<defs>
<font id="icomoon" horiz-adv-x="1024">
<font-face units-per-em="1024" ascent="960" descent="-64" />
<missing-glyph horiz-adv-x="1024" />
<glyph unicode="&#x20;" horiz-adv-x="512" d="" />
<glyph unicode="&#xe600;" glyph-name="location" horiz-adv-x="640" d="M320 960c-177 0-320-143-320-320s160-416 320-704c160 288 320 527 320 704s-143 320-320 320zM320 512c-71 0-128 57-128 128s57 128 128 128 128-57 128-128-57-128-128-128z" />
<glyph unicode="&#xe601;" glyph-name="youtube1" d="M731.429 438.857q0 21.143-17.143 30.857l-292.571 182.857q-17.714 11.429-37.143 1.143-18.857-10.286-18.857-32v-365.714q0-21.714 18.857-32 9.143-4.571 17.714-4.571 11.429 0 19.429 5.714l292.571 182.857q17.143 9.714 17.143 30.857zM1024 438.857q0-54.857-0.571-85.714t-4.857-78-12.857-84.286q-9.143-41.714-39.429-70.286t-70.857-33.143q-126.857-14.286-383.429-14.286t-383.429 14.286q-40.571 4.571-71.143 33.143t-39.714 70.286q-8 37.143-12.286 84.286t-4.857 78-0.571 85.714 0.571 85.714 4.857 78 12.857 84.286q9.143 41.714 39.429 70.286t70.857 33.143q126.857 14.286 383.429 14.286t383.429-14.286q40.571-4.571 71.143-33.143t39.714-70.286q8-37.143 12.286-84.286t4.857-78 0.571-85.714z" />
<glyph unicode="&#xe602;" glyph-name="menu" d="M128 170.667h768v85.333h-768v-85.333zM128 384h768v85.333h-768v-85.333zM128 682.667v-85.333h768v85.333h-768z" />
<glyph unicode="&#xe603;" glyph-name="social-facebook" d="M554.667 512h128v-128h-128v-298.667h-128v298.667h-128v128h128v53.547c0 50.731 15.957 114.816 47.701 149.845 31.744 35.115 71.381 52.608 118.869 52.608h89.429v-128h-89.6c-21.248 0-38.4-17.152-38.4-38.357v-89.643z" />
<glyph unicode="&#xe604;" glyph-name="social-twitter" d="M805.973 639.488c34.475 21.163 57.301 50.048 68.48 86.784-33.536-17.792-66.944-29.995-100.309-36.736-29.995 32.256-67.968 48.64-113.493 48.64-44.501 0-82.091-15.616-112.768-45.995-30.507-30.592-45.909-67.755-45.909-111.147 0-13.184 1.664-24.96 4.992-34.944-131.243 4.48-239.872 58.923-325.461 163.712-14.507-25.643-21.76-51.755-21.76-78.763 0-55.509 23.424-99.499 70.187-131.797-26.667 2.261-50.176 9.003-70.187 20.053 0-39.637 11.648-72.747 34.987-101.888 23.424-28.843 53.504-47.232 90.24-55.083-13.312-3.413-27.349-5.035-41.771-5.035-13.312 0-22.741 1.109-28.331 3.541 9.813-32.299 28.331-58.496 55.083-78.549 26.667-20.139 57.344-30.763 91.819-31.701-56.832-44.587-121.813-66.645-195.328-66.645-18.005 0-30.763 0.256-38.485 1.621 72.405-47.019 153.003-70.357 242.176-70.357 91.264 0 171.904 23.125 242.091 69.376 70.187 45.995 121.984 102.741 155.264 169.557 33.451 66.731 50.005 136.192 50.005 208.725v19.968c32.341 24.32 58.496 51.712 78.507 81.963-29.013-12.501-59.008-20.992-90.027-25.301z" />
<glyph unicode="&#xe605;" glyph-name="close" d="M810.667 768q18.333 0 30.5-12.167t12.167-30.5q0-18-12.333-30.333l-268.667-268.333 268.667-268.333q12.333-12.333 12.333-30.333 0-18.333-12.167-30.5t-30.5-12.167q-18 0-30.333 12.333l-268.333 268.667-268.333-268.667q-12.333-12.333-30.333-12.333-18.333 0-30.5 12.167t-12.167 30.5q0 18 12.333 30.333l268.667 268.333-268.667 268.333q-12.333 12.333-12.333 30.333 0 18.333 12.167 30.5t30.5 12.167q18 0 30.333-12.333l268.333-268.667 268.333 268.667q12.333 12.333 30.333 12.333z" />
<glyph unicode="&#xe606;" glyph-name="arrow-right" d="M389.171 285.798c-13.722-13.875-13.722-36.301 0-50.125 13.67-13.875 35.891-13.875 49.613 0l196.096 200.038c13.722 13.875 13.722 36.301 0 50.125l-196.096 200.090c-13.722 13.875-35.891 13.875-49.613 0s-13.722-36.25-0.051-50.074l160.819-175.053-160.768-175.002z" />
<glyph unicode="&#xe607;" glyph-name="arrow-left" d="M634.829 285.798c13.722-13.875 13.722-36.301 0-50.125-13.722-13.875-35.891-13.875-49.613 0l-196.096 200.038c-13.722 13.875-13.722 36.301 0 50.125l196.096 200.090c13.722 13.875 35.891 13.875 49.613 0s13.722-36.25 0-50.125l-160.768-175.002 160.768-175.002z" />
<glyph unicode="&#xe608;" glyph-name="arrow-down" d="M687.002 583.629c13.875 13.722 36.301 13.722 50.125 0 13.875-13.722 13.875-35.891 0-49.613l-200.038-196.096c-13.875-13.722-36.301-13.722-50.125 0l-200.090 196.096c-13.824 13.722-13.824 35.891 0 49.613 13.875 13.722 36.25 13.722 50.125 0l175.002-160.768 175.002 160.768z" />
<glyph unicode="&#xe609;" glyph-name="arrow-up" d="M336.947 337.971c-13.875-13.722-36.25-13.722-50.125 0-13.824 13.722-13.875 35.891 0 49.664l200.090 195.994c13.875 13.722 36.301 13.722 50.125 0l200.090-196.045c13.875-13.773 13.875-35.942 0-49.664s-36.25-13.722-50.125 0l-175.053 160.819-175.002-160.768z" />
<glyph unicode="&#xe60a;" glyph-name="phone" horiz-adv-x="805" d="M804.571 242.286q0-15.429-5.714-40.286t-12-39.143q-12-28.571-69.714-60.571-53.714-29.143-106.286-29.143-15.429 0-30 2t-32.857 7.143-27.143 8.286-31.714 11.714-28 10.286q-56 20-100 47.429-73.143 45.143-151.143 123.143t-123.143 151.143q-27.429 44-47.429 100-1.714 5.143-10.286 28t-11.714 31.714-8.286 27.143-7.143 32.857-2 30q0 52.571 29.143 106.286 32 57.714 60.571 69.714 14.286 6.286 39.143 12t40.286 5.714q8 0 12-1.714 10.286-3.429 30.286-43.429 6.286-10.857 17.143-30.857t20-36.286 17.714-30.571q1.714-2.286 10-14.286t12.286-20.286 4-16.286q0-11.429-16.286-28.571t-35.429-31.429-35.429-30.286-16.286-26.286q0-5.143 2.857-12.857t4.857-11.714 8-13.714 6.571-10.857q43.429-78.286 99.429-134.286t134.286-99.429q1.143-0.571 10.857-6.571t13.714-8 11.714-4.857 12.857-2.857q10.286 0 26.286 16.286t30.286 35.429 31.429 35.429 28.571 16.286q8 0 16.286-4t20.286-12.286 14.286-10q14.286-8.571 30.571-17.714t36.286-20 30.857-17.143q40-20 43.429-30.286 1.714-4 1.714-12z" />
<glyph unicode="&#xe60e;" glyph-name="staff" horiz-adv-x="1126" d="M768 611.84c0-84.831-68.769-153.6-153.6-153.6s-153.6 68.769-153.6 153.6c0 84.831 68.769 153.6 153.6 153.6s153.6-68.769 153.6-153.6zM337.92 765.44c0-79.176-64.184-143.36-143.36-143.36s-143.36 64.184-143.36 143.36c0 79.176 64.184 143.36 143.36 143.36s143.36-64.184 143.36-143.36zM1075.2 181.76c0-113.108-91.692-204.8-204.8-204.8s-204.8 91.692-204.8 204.8c0 113.108 91.692 204.8 204.8 204.8s204.8-91.692 204.8-204.8z" />
<glyph unicode="&#xe612;" glyph-name="search" d="M1000.64 70.848l-184.896 184.896c50.688 72.576 80.64 160.704 80.64 255.936 0 247.424-200.64 448-448 448s-448-200.576-448-448c0-247.424 200.576-448 448-448 95.232 0 183.424 29.952 256 80.64l184.896-184.896c30.72-30.72 80.64-30.72 111.36 0s30.72 80.576 0 111.424zM448.32 191.616c-176.704 0-320 143.232-320 320s143.296 320 320 320c176.768 0 320-143.232 320-320 0.064-176.768-143.168-320-320-320z" />
<glyph unicode="&#xe61d;" glyph-name="envelope" d="M0 149.334c0-47.146 38.186-85.334 85.334-85.334h853.334c47.146 0 85.334 38.186 85.334 85.334l-0.002 576c0 47.146-38.186 85.334-85.334 85.334l-853.332-0.002c-47.146 0-85.334-38.186-85.334-85.334v-575.998zM314.026 436.694l-195.2 196.48c-16.192 16.214-16.192 42.454 0 58.666 16.234 16.214 42.474 16.214 58.666 0l311.468-311.872c12.586-12.374 33.302-12.374 45.674 0l311.872 311.872c16.214 16.214 42.454 16.214 58.666 0 16.214-16.214 16.214-42.454 0-58.666l-195.414-196.48 195.414-195.178c16.214-16.214 16.214-42.454 0-58.666s-42.454-16.214-58.666 0l-195.2 194.986c0 0-60.992-62.080-72.086-73.174-17.3-16.876-41.194-27.328-67.22-27.328-26.454 0-50.346 10.666-67.626 27.968-11.306 11.094-71.894 72.512-71.894 72.512l-195.008-194.986c-16.192-16.214-42.432-16.214-58.666 0-16.192 16.214-16.192 42.454 0 58.666l195.22 195.2z" />
<glyph unicode="&#xe900;" glyph-name="email" d="M917.807 800.711h-804.030c-49.304 0-91.022-41.719-91.022-91.022v-527.17c0-49.304 41.719-91.022 91.022-91.022h800.237c49.304 0 91.022 41.719 91.022 91.022v527.17c0 49.304-37.926 91.022-87.23 91.022zM917.807 152.178h-804.030c-18.963 0-34.133 15.17-34.133 34.133v515.793l284.444-246.519-166.874-155.496c-3.793-7.585-7.585-11.378-7.585-18.963s3.793-15.17 7.585-18.963c11.378-11.378 30.341-11.378 41.719 0l170.667 159.289 41.719-34.133c34.133-30.341 94.815-30.341 128.948 0l41.719 34.133 170.667-159.289c11.378-11.378 30.341-11.378 41.719 0 3.793 3.793 7.585 11.378 7.585 18.963s-3.793 15.17-7.585 18.963l-166.874 155.496 280.652 246.519v-515.793c0-18.963-15.17-34.133-30.341-34.133zM542.341 425.244c-15.17-11.378-41.719-11.378-56.889 0l-364.089 318.578h788.859l-367.881-318.578z" />
<glyph unicode="&#xe901;" glyph-name="fb" d="M716.8 442.88h-143.36v-476.16h-215.040v476.16h-102.4v184.32h102.4v112.64c0 92.16 40.96 220.16 215.040 220.16h158.72v-174.080h-117.76c-20.48 0-46.080-10.24-46.080-51.2v-107.52h158.72l-10.24-184.32z" />
<glyph unicode="&#xe902;" glyph-name="fb2" d="M24.381 852.724v-780.19c0-53.638 43.886-97.524 97.524-97.524h424.229v375.467h-131.657v151.162h126.781v131.657c0 92.648 78.019 170.667 170.667 170.667h131.657v-136.533h-92.648c-29.257 0-53.638-24.381-53.638-53.638v-107.276h146.286l-19.505-156.038h-126.781v-375.467h204.8c53.638 0 97.524 43.886 97.524 97.524v780.19c0 53.638-43.886 97.524-97.524 97.524h-780.19c-53.638 0-97.524-43.886-97.524-97.524z" />
<glyph unicode="&#xe903;" glyph-name="itg" d="M706.56 960c174.080 0 317.44-143.36 317.44-317.44v-384c0-179.2-143.36-317.44-317.44-317.44h-389.12c-174.080-5.12-317.44 138.24-317.44 312.32v389.12c0 174.080 143.36 317.44 317.44 317.44h389.12zM926.72 253.44v389.12c0 122.88-102.4 225.28-225.28 225.28h-384c-122.88 0-225.28-102.4-225.28-225.28v-384c0-122.88 102.4-225.28 225.28-225.28h384c128 0 225.28 97.28 225.28 220.16zM522.24 693.76c143.36 0 256-112.64 256-256s-112.64-256-256-256-256 112.64-256 256 112.64 256 256 256zM522.24 279.040c87.040 0 158.72 71.68 158.72 158.72s-71.68 158.72-158.72 158.72-163.84-66.56-163.84-158.72c0-87.040 71.68-158.72 163.84-158.72zM793.6 693.76c-15.36 0-30.72 15.36-30.72 30.72s15.36 30.72 30.72 30.72c15.36 0 30.72-15.36 30.72-30.72s-15.36-30.72-30.72-30.72z" />
<glyph unicode="&#xe904;" glyph-name="mouse" horiz-adv-x="742" d="M360.96 960c199.68 0 360.96-163.84 360.96-366.080v-291.84c0-202.24-161.28-366.080-360.96-366.080-197.12 0-358.4 163.84-358.4 366.080v291.84c0 202.24 161.28 366.080 358.4 366.080zM655.36 302.080v291.84c0 163.84-130.56 299.52-291.84 299.52-163.84 0-294.4-135.68-294.4-299.52v-291.84c0-163.84 130.56-299.52 291.84-299.52s294.4 135.68 294.4 299.52zM360.96 680.96c17.92 0 33.28-15.36 33.28-33.28v-117.76c0-17.92-15.36-33.28-33.28-33.28s-33.28 15.36-33.28 33.28v117.76c0 17.92 15.36 33.28 33.28 33.28z" />
<glyph unicode="&#xe905;" glyph-name="circle" d="M512 960c-281.6 0-512-230.4-512-512s230.4-512 512-512c281.6 0 512 230.4 512 512s-230.4 512-512 512zM512 33.28c-230.4 0-414.72 184.32-414.72 414.72s184.32 414.72 414.72 414.72 414.72-184.32 414.72-414.72-184.32-414.72-414.72-414.72z" />
<glyph unicode="&#xe906;" glyph-name="next" d="M1024 456.904c4.452 8.904 4.452 13.357 0 22.261 0 4.452-4.452 8.904-4.452 8.904l-351.722 351.722c-13.357 13.357-31.165 13.357-40.070 0-13.357-13.357-13.357-31.165 0-40.070l302.748-302.748h-899.339c-17.809 0-31.165-13.357-31.165-31.165s13.357-31.165 31.165-31.165h894.887l-302.748-298.296c-13.357-13.357-13.357-31.165 0-40.070 4.452-4.452 13.357-8.904 22.261-8.904s13.357 4.452 22.261 8.904l351.722 351.722c0 0 0 4.452 4.452 8.904z" />
<glyph unicode="&#xe907;" glyph-name="wts" d="M1024 460.8c0-277.333-226.133-499.2-503.467-499.2-89.6 0-170.667 21.333-243.2 64l-277.333-89.6 89.6 268.8c-46.933 76.8-72.533 162.133-72.533 256 0 277.333 226.133 499.2 503.467 499.2s503.467-221.867 503.467-499.2zM520.533 878.933c-234.667 0-422.4-187.733-422.4-418.133 0-93.867 29.867-174.933 81.067-247.467l-51.2-153.6 162.133 51.2c68.267-42.667 145.067-68.267 230.4-68.267 234.667 0 422.4 187.733 422.4 418.133s-187.733 418.133-422.4 418.133zM776.533 345.6c-4.267 4.267-12.8 8.533-25.6 12.8s-72.533 34.133-85.333 38.4c-8.533 8.533-17.067 8.533-25.6-4.267s-29.867-38.4-38.4-46.933c-8.533-8.533-12.8-8.533-25.6-4.267s-51.2 17.067-98.133 59.733c-38.4 34.133-59.733 72.533-68.267 85.333s0 17.067 4.267 25.6c4.267 4.267 12.8 12.8 17.067 21.333s8.533 12.8 12.8 21.333c4.267 8.533 0 17.067 0 21.333-4.267 4.267-29.867 68.267-38.4 89.6-12.8 25.6-21.333 21.333-29.867 21.333s-17.067 0-25.6 0-21.333 0-29.867-12.8-42.667-42.667-42.667-102.4c0-59.733 42.667-119.467 51.2-128 4.267-8.533 85.333-136.533 209.067-183.467s123.733-34.133 149.333-29.867c21.333 0 72.533 29.867 81.067 59.733 8.533 25.6 8.533 51.2 8.533 55.467z" />
<glyph unicode="&#xe908;" glyph-name="closed" d="M1024 857.6l-102.4 102.4-409.6-409.6-409.6 409.6-102.4-102.4 409.6-409.6-409.6-409.6 102.4-102.4 409.6 409.6 409.6-409.6 102.4 102.4-409.6 409.6z" />
<glyph unicode="&#xe909;" glyph-name="yt" d="M992.221 649.269c0 84.745-67.090 151.834-148.303 151.834h-695.614c-81.214 0-148.303-67.090-148.303-151.834v-406.069c0-81.214 67.090-148.303 148.303-148.303h695.614c81.214 0 148.303 67.090 148.303 151.834v402.538zM395.476 278.51v377.821l282.483-190.676-282.483-187.145z" />
<glyph unicode="&#xe90a;" glyph-name="corazon" horiz-adv-x="1101" d="M1101.075 655.002c-3.485 165.115-134.88 298.431-298.89 304.979l-0.602 0.019c-106.585-1.908-199.275-59.618-250.293-145.084l-0.752-1.359c-49.416 87.983-142.137 146.454-248.515 146.454-0.89 0-1.778-0.004-2.666-0.012l0.136 0.001c-164.613-6.567-296.008-139.882-299.487-304.665l-0.006-0.333c-0.748-8.335-1.174-18.030-1.174-27.825 0-31.643 4.449-62.247 12.757-91.221l-0.572 2.331c25.879-101.604 79.635-188.228 152.595-253.945l0.455-0.403 386.477-347.94 386.477 347.94c73.415 66.121 127.171 152.746 152.288 250.84l0.762 3.508c7.735 26.642 12.185 57.246 12.185 88.889 0 9.795-0.426 19.49-1.261 29.068l0.087-1.243z" />
<glyph unicode="&#xe90b;" glyph-name="close2" d="M613.588 430.345l251.763 251.763c10.751 10.742 17.401 25.586 17.401 41.984 0 32.778-26.572 59.349-59.349 59.349-16.38 0-31.21-6.636-41.949-17.366l-251.798-251.798-251.763 251.763c-10.742 10.751-25.586 17.401-41.984 17.401-32.778 0-59.349-26.572-59.349-59.349 0-16.38 6.636-31.21 17.366-41.949l251.798-251.798-251.763-251.763c-10.751-10.742-17.401-25.586-17.401-41.984 0-32.778 26.572-59.349 59.349-59.349 16.38 0 31.21 6.636 41.949 17.366l251.798 251.798 251.763-251.763c10.742-10.751 25.586-17.401 41.984-17.401 32.778 0 59.349 26.572 59.349 59.349 0 16.38-6.636 31.21-17.366 41.949l-251.798 251.798z" />
<glyph unicode="&#xe90c;" glyph-name="prev" d="M0 439.096c-4.452-8.904-4.452-13.357 0-22.261 0-4.452 4.452-8.904 4.452-8.904l351.722-351.722c13.357-13.357 31.165-13.357 40.070 0 13.357 13.357 13.357 31.165 0 40.070l-302.748 302.748h899.339c17.809 0 31.165 13.357 31.165 31.165s-13.357 31.165-31.165 31.165h-894.887l302.748 298.296c13.357 13.357 13.357 31.165 0 40.070-4.452 4.452-13.357 8.904-22.261 8.904s-13.357-4.452-22.261-8.904l-351.722-351.722c0 0 0-4.452-4.452-8.904z" />
</font></defs></svg>